<svg xmlns="http://www.w3.org/2000/svg" xmlns:xlink="http://www.w3.org/1999/xlink" width="42" height="42" version="1.1" style=""><rect id="backgroundrect" width="100%" height="100%" x="0" y="0" fill="none" stroke="none"/>
    <!-- Generator: Sketch 46.2 (44496) - http://www.bohemiancoding.com/sketch -->
    <desc>Created with Sketch.</desc>
    <defs/>
    
<g class="currentLayer" style=""><title>Layer 1</title><g id="Style-Inventory-(WiP)" stroke="none" stroke-width="1" fill="#00a0f5" fill-rule="evenodd" class="selected" fill-opacity="1">
        <g id="Style-Inventory/Icons-(WiP)" fill="#00a0f5" fill-opacity="1">
            <g id="Graphics" fill="#00a0f5" fill-opacity="1">
                <g id="Icons" fill="#00a0f5" fill-opacity="1">
                    <g id="General_Shopping_Basket_RGB_blue" fill="#00a0f5" fill-opacity="1">
                        <path d="M20.96036620000001,40.35845069999999 C10.30789440000001,40.35845069999999 1.6415493000000083,31.69210559999999 1.6415493000000083,21.03963379999999 C1.6415493000000083,10.38716199999999 10.30789440000001,1.7208168999999884 20.96036620000001,1.7208168999999884 C31.612985899999998,1.7208168999999884 40.279331,10.38716199999999 40.279331,21.03963379999999 C40.279331,31.69210559999999 31.612985899999998,40.35845069999999 20.96036620000001,40.35845069999999 zM20.96036620000001,0.07926760560002322 C9.40282393999999,0.07926760560002322 0,9.482091550000007 0,21.03963379999999 C0,32.59717610000001 9.40282393999999,42 20.96036620000001,42 C32.5180563,42 41.92088029999999,32.59717610000001 41.92088029999999,21.03963379999999 C41.92088029999999,9.482091550000007 32.5180563,0.07926760560002322 20.96036620000001,0.07926760560002322 L20.96036620000001,0.07926760560002322 z" id="Fill-3" fill="#00a0f5" fill-opacity="1"/>
                        <path d="M31.590359199999995,16.95616899999999 C31.581485900000004,16.956021099999987 31.572612700000008,16.954837999999995 31.5635915,16.954837999999995 L13.628556300000014,16.954837999999995 L13.257211299999994,15.679605600000002 L32.007549299999994,15.679605600000002 L31.590359199999995,16.95616899999999 zM29.166929600000003,24.37478870000001 L15.789485899999988,24.37478870000001 L14.106676099999987,18.596387300000004 L31.054563400000006,18.596387300000004 L29.166929600000003,24.37478870000001 zM15.10417609999999,30.030887300000018 C14.719816900000012,30.030887300000018 14.407035199999996,29.7181056 14.407035199999996,29.333598600000016 C14.407035199999996,28.94923940000001 14.719816900000012,28.636457699999994 15.10417609999999,28.636457699999994 C15.488535200000001,28.636457699999994 15.80131689999999,28.94923940000001 15.80131689999999,29.333598600000016 C15.80131689999999,29.7181056 15.488535200000001,30.030887300000018 15.10417609999999,30.030887300000018 zM30.04567610000001,28.636457699999994 C30.430183099999994,28.636457699999994 30.742816900000008,28.94923940000001 30.742816900000008,29.333598600000016 C30.742816900000008,29.7181056 30.430183099999994,30.030887300000018 30.04567610000001,30.030887300000018 C29.661169,30.030887300000018 29.3483873,29.7181056 29.3483873,29.333598600000016 C29.3483873,28.94923940000001 29.661169,28.636457699999994 30.04567610000001,28.636457699999994 zM33.139035199999995,14.038056299999994 L12.779239399999994,14.038056299999994 L11.749795800000015,10.503401399999973 C11.647753499999993,10.153056300000003 11.326690100000008,9.912147890000028 10.961852099999987,9.912147890000028 L8.362584510000005,9.912147890000028 C7.909309860000008,9.912147890000028 7.541957749999995,10.279647899999986 7.541957749999995,10.732922499999972 C7.541957749999995,11.186197199999981 7.909309860000008,11.553697199999988 8.362584510000005,11.553697199999988 L10.346049300000004,11.553697199999988 L14.376126800000009,25.39225349999998 L14.376126800000009,27.112478899999985 C13.442218300000008,27.41949299999999 12.765485899999987,28.2983873 12.765485899999987,29.333598600000016 C12.765485899999987,30.623323900000003 13.81459860000001,31.672436600000026 15.10417609999999,31.672436600000026 C16.289936600000004,31.672436600000026 17.269985899999995,30.784669000000008 17.42053519999999,29.639281700000026 L27.729169,29.639281700000026 C27.879718300000008,30.784669000000008 28.859767599999998,31.672436600000026 30.04567610000001,31.672436600000026 C31.335253499999993,31.672436600000026 32.3842183,30.623323900000003 32.3842183,29.333598600000016 C32.3842183,28.04402110000001 31.335253499999993,26.994908500000008 30.04567610000001,26.994908500000008 C29.252704199999997,26.994908500000008 28.551866200000006,27.392429600000014 28.128612700000005,27.997732400000018 L17.02109150000001,27.997732400000018 C16.7708662,27.6396972 16.424070400000005,27.353978900000016 16.017528200000015,27.18080279999998 L16.017528200000015,26.01633800000002 L29.762176100000005,26.01633800000002 C30.117253500000004,26.01633800000002 30.4321056,25.78800000000001 30.542281700000004,25.450521100000003 L33.91914080000001,15.113788699999986 C34.0009225,14.863711299999977 33.95788730000001,14.589823899999999 33.8033451,14.376866199999995 C33.6489507,14.164056300000027 33.4019789,14.038056299999994 33.139035199999995,14.038056299999994 L33.139035199999995,14.038056299999994 z" id="Fill-5" fill="#00a0f5" fill-opacity="1"/>
                    </g>
                </g>
            </g>
        </g>
    </g></g></svg>