id,name,description,poolingStrategy,poolingCondition,pools
10101,"SAPINVOICE_INBOUND_FEED","Feed for SAP Invoice replication from SAP ERP to hybris core","NAMED_POOL","SAPINVOICE_INBOUND_POOL",DataHubPool|10101

