<?xml version="1.0" encoding="utf-8"?>
<!-- Generator: Adobe Illustrator 23.0.6, SVG Export Plug-In . SVG Version: 6.00 Build 0)  -->
<svg version="1.1" id="Ebene_1" xmlns="http://www.w3.org/2000/svg" xmlns:xlink="http://www.w3.org/1999/xlink" x="0px" y="0px"
	 viewBox="0 0 10 10" style="enable-background:new 0 0 10 10;" xml:space="preserve">
<style type="text/css">
	.st0{fill-rule:evenodd;clip-rule:evenodd;fill:#00A0F5;}
</style>
<path class="st0" d="M8.3,8.9C8.5,9,8.7,9,8.9,8.9C9,8.7,9,8.5,8.9,8.3L5.6,5l3.3-3.3C9,1.5,9,1.3,8.9,1.1C8.7,1,8.5,1,8.3,1.1
	L5,4.4L1.7,1.1C1.5,1,1.3,1,1.1,1.1C1,1.3,1,1.5,1.1,1.7L4.4,5L1.1,8.3C1,8.5,1,8.7,1.1,8.9C1.3,9,1.5,9,1.7,8.9L5,5.6L8.3,8.9z"/>
</svg>
